{
    "COCO_HEALTH": {
        "key": "COCO_HEALTH",
        "employer": "CocoHealth",
        "title": "Student Research",
        "period": {
            "from": "June 2020",
            "to": "December 2020"
        },
        "pills": [
            "React Native",
            "JavaScript",
            "Firebase"
        ],
        "descriptions": [
            "Implementing UI & UX and developing custom animation for our CocoBot AI-based Chat Therapy App",
            "Developing authentication system in the frontend",
            "Researching BERT and basic-level Logistic Regression ML model to classify text sentiment"
        ],
        "order": 2
    },
    "HEALI_AI": {
        "key": "HEALI_AI",
        "employer": "Heali AI",
        "title": "Full Stack Engineering Intern",
        "period": {
            "from": "April 2021",
            "to": "Present"
        },
        "pills": [
            "React Native",
            "JavaScript",
            "Python",
            "Node.js",
            "Lambda",
            "DynamoDB",
            "AWS"
        ],
        "descriptions": [
            "Implementing frontend features for the first clinical grade nutrition platform and designing data structures for backend endpoint responses",
            "Reducing unnecessary API calls and re-rendering",
            "Heavily involving in app deployment process and AWS to check server logs (CloudWatch), S3, and DynamoDB table",
            "Optimizing frontend rendering and backend endpoints leveraging batching and caching mechanism"
        ],
        "order": 1
    }
}